…
data_2005_2018_clean_products <- data_2005_2018 %>%
    mutate(producto = recode(producto, !!!level_key)) %>%
    filter(producto != "DIESEL MARINO N° 2",
           producto != "GLP - G",
           producto != "KEROSENE (DOMÉSTICO)",
           producto != "GAS NATURAL VEHICULAR",
           producto != "GAS LICUADO DE PETROLEO")


data_2005_2018_clean_products %>% 
    filter(precio_de_venta < 10000, precio_de_venta > 1000) %>%
    select(razon_social, departamento, precio_de_venta)
```

    ## # A tibble: 95 x 3
    ##    razon_social                  departamento precio_de_venta
    ##    <chr>                         <chr>                  <dbl>
    ##  1 GRIFO KELLY S.R.L.            LAMBAYEQUE             1093 
    ##  2 GRIFO KELLY S.R.L.            LAMBAYEQUE             1093 
    ##  3 NEGOCIACIONES ROSITA E.I.R.L. UCAYALI                7583.
    ##  4 NEGOCIACIONES ROSITA E.I.R.L. UCAYALI                7412.
    ##  5 SERVICENTRO CHACHANI E.I.R.L. AREQUIPA               1085 
    ##  6 INVERSIONES CUNEO S.A.C       TACNA                  1550 
    ##  7 MULTISERVICIOS ARAGON S.R.L   AREQUIPA               1135 
    ##  8 BAC PETROL S.A.C.             LIMA                   1046 
    ##  9 BEMCHO S.A.C.                 LIMA                   1535 
    ## 10 BEMCHO S.A.C.                 LIMA                   1535 
    ## # ... with 85 more rows
…
