…
coordenadas_costa
```

```
## # A tibble: 21 x 3
##    lugar       x     y
##    <chr>   <dbl> <dbl>
##  1 litoral -12.1 -77.1
##  2 litoral -12.1 -77.1
##  3 litoral -12.1 -77.1
##  4 litoral -12.1 -77.1
##  5 litoral -12.1 -77.1
##  6 litoral -12.1 -77.0
##  7 litoral -12.1 -77.0
##  8 litoral -12.1 -77.0
##  9 litoral -12.1 -77.0
## 10 litoral -12.1 -77.0
## # ... with 11 more rows
```
…
coordenadas_costa
```

```
## # A tibble: 21 x 3
##    lugar       y     x
##    <chr>   <dbl> <dbl>
##  1 litoral -12.1 -77.1
##  2 litoral -12.1 -77.1
##  3 litoral -12.1 -77.1
##  4 litoral -12.1 -77.1
##  5 litoral -12.1 -77.1
##  6 litoral -12.1 -77.0
##  7 litoral -12.1 -77.0
##  8 litoral -12.1 -77.0
##  9 litoral -12.1 -77.0
## 10 litoral -12.1 -77.0
## # ... with 11 more rows
```
…
proj4string(dsp_df) <- CRS("+proj=longlat +datum=WGS84")
dsp_xy <- spTransform(dsp_df, CRS("+proj=longlat +datum=WGS84"))


#Nos quedamos solo con los distintos, y agregamos columna de datos de bandera:

grifos_filtrado <- grifos %>% 
  distinct(lat,lon, .keep_all = TRUE) %>%
  rownames_to_column("rowname")

grifos_filtrado
```

```
## # A tibble: 259 x 29
##    rowname codificador codigo_de_osine~ razon_social ruc   direccion
##    <chr>   <chr>                  <dbl> <chr>        <chr> <chr>    
##  1 1       DU                     34770 REPSOL COME~ 2050~ ESQ. AV.~
##  2 2       VM                      9464 COESTI S.A.  2012~ AV. CANA~
##  3 3       VM                     18440 GRIFOS DIAN~ 2043~ AV. MEXI~
##  4 4       MC                      9515 SERVICENTRO~ 2051~ AV. NACI~
##  5 5       MC                     18824 REPSOL COME~ 2050~ AV. TING~
##  6 6       MC                     18401 GASOLINERAS~ 2010~ AV. 28 D~
##  7 7       MC                      8063 COESTI S.A.  2012~ AV. JAVI~
##  8 8       DU                     17944 PERUANA DE ~ 2033~ AV. ARIC~
##  9 9       DU                      9526 COESTI S.A.  2012~ AV. LA M~
## 10 10      DU                      6785 ASESORIA CO~ 2010~ AV. TING~
## # ... with 249 more rows, and 23 more variables: distrito <chr>, n <dbl>,
## #   bandera <fct>, glp <chr>, gnv <chr>, llanteria <chr>,
## #   islas_comb_liq <chr>, mecanico <chr>, aceite <chr>, lavado <chr>,
## #   tienda <chr>, cajero <chr>, en_avenida_principal <chr>, lat <dbl>,
## #   lon <dbl>, revisar <chr>, tipo <chr>, con_glp <dbl>, con_gnv <dbl>,
## #   grifo_mas_cercano <chr>, distancia_min <dbl>, distancia_avg <dbl>,
## #   num_grifos_cerc <int>
```
…
